{
  "rules": {
    "room1": {
      ".write": "auth != null",
      ".read": "auth != null"
    },
    "room2": {
      ".write": "auth != null",
      ".read": "auth != null"
    },
    "room3": {
      ".write": "auth != null",
      ".read": "auth != null"
    },
    ".read": false,
    ".write": false
  }
}